1_ano/2_semestre/LSD/ProjFinal/simulation/qsim/ProjFinal.msim.vcd
$comment
	File created using the following command:
		vcd file ProjFinal.msim.vcd -direction
$end
$date
	Tue May 30 19:08:50 2023
$end
$version
	ModelSim Version 2020.1
$end
$timescale
	1ps
$end

$scope module schematic_vhd_vec_tst $end
$var wire 1 ! clk $end
$var wire 1 " HEX0 [6] $end
$var wire 1 # HEX0 [5] $end
$var wire 1 $ HEX0 [4] $end
$var wire 1 % HEX0 [3] $end
$var wire 1 & HEX0 [2] $end
$var wire 1 ' HEX0 [1] $end
$var wire 1 ( HEX0 [0] $end
$var wire 1 ) HEX1 [6] $end
$var wire 1 * HEX1 [5] $end
$var wire 1 + HEX1 [4] $end
$var wire 1 , HEX1 [3] $end
$var wire 1 - HEX1 [2] $end
$var wire 1 . HEX1 [1] $end
$var wire 1 / HEX1 [0] $end
$var wire 1 0 LEDR [0] $end
$var wire 1 1 reset $end
$var wire 1 2 start_stop $end
$var wire 1 3 SW [3] $end
$var wire 1 4 SW [2] $end
$var wire 1 5 SW [1] $end
$var wire 1 6 SW [0] $end
$var wire 1 7 time_repouso [7] $end
$var wire 1 8 time_repouso [6] $end
$var wire 1 9 time_repouso [5] $end
$var wire 1 : time_repouso [4] $end
$var wire 1 ; time_repouso [3] $end
$var wire 1 < time_repouso [2] $end
$var wire 1 = time_repouso [1] $end
$var wire 1 > time_repouso [0] $end

$scope module i1 $end
$var wire 1 ? gnd $end
$var wire 1 @ vcc $end
$var wire 1 A unknown $end
$var wire 1 B devoe $end
$var wire 1 C devclrn $end
$var wire 1 D devpor $end
$var wire 1 E ww_devoe $end
$var wire 1 F ww_devclrn $end
$var wire 1 G ww_devpor $end
$var wire 1 H ww_HEX0 [6] $end
$var wire 1 I ww_HEX0 [5] $end
$var wire 1 J ww_HEX0 [4] $end
$var wire 1 K ww_HEX0 [3] $end
$var wire 1 L ww_HEX0 [2] $end
$var wire 1 M ww_HEX0 [1] $end
$var wire 1 N ww_HEX0 [0] $end
$var wire 1 O ww_reset $end
$var wire 1 P ww_clk $end
$var wire 1 Q ww_start_stop $end
$var wire 1 R ww_SW [3] $end
$var wire 1 S ww_SW [2] $end
$var wire 1 T ww_SW [1] $end
$var wire 1 U ww_SW [0] $end
$var wire 1 V ww_time_repouso [7] $end
$var wire 1 W ww_time_repouso [6] $end
$var wire 1 X ww_time_repouso [5] $end
$var wire 1 Y ww_time_repouso [4] $end
$var wire 1 Z ww_time_repouso [3] $end
$var wire 1 [ ww_time_repouso [2] $end
$var wire 1 \ ww_time_repouso [1] $end
$var wire 1 ] ww_time_repouso [0] $end
$var wire 1 ^ ww_HEX1 [6] $end
$var wire 1 _ ww_HEX1 [5] $end
$var wire 1 ` ww_HEX1 [4] $end
$var wire 1 a ww_HEX1 [3] $end
$var wire 1 b ww_HEX1 [2] $end
$var wire 1 c ww_HEX1 [1] $end
$var wire 1 d ww_HEX1 [0] $end
$var wire 1 e ww_LEDR [0] $end
$var wire 1 f \SW[3]~input_o\ $end
$var wire 1 g \SW[2]~input_o\ $end
$var wire 1 h \SW[1]~input_o\ $end
$var wire 1 i \SW[0]~input_o\ $end
$var wire 1 j \time_repouso[7]~input_o\ $end
$var wire 1 k \time_repouso[6]~input_o\ $end
$var wire 1 l \time_repouso[5]~input_o\ $end
$var wire 1 m \time_repouso[4]~input_o\ $end
$var wire 1 n \time_repouso[3]~input_o\ $end
$var wire 1 o \time_repouso[2]~input_o\ $end
$var wire 1 p \time_repouso[1]~input_o\ $end
$var wire 1 q \time_repouso[0]~input_o\ $end
$var wire 1 r \clk~input_o\ $end
$var wire 1 s \reset~input_o\ $end
$var wire 1 t \start_stop~input_o\ $end
$var wire 1 u \HEX0[6]~output_o\ $end
$var wire 1 v \HEX0[5]~output_o\ $end
$var wire 1 w \HEX0[4]~output_o\ $end
$var wire 1 x \HEX0[3]~output_o\ $end
$var wire 1 y \HEX0[2]~output_o\ $end
$var wire 1 z \HEX0[1]~output_o\ $end
$var wire 1 { \HEX0[0]~output_o\ $end
$var wire 1 | \HEX1[6]~output_o\ $end
$var wire 1 } \HEX1[5]~output_o\ $end
$var wire 1 ~ \HEX1[4]~output_o\ $end
$var wire 1 !! \HEX1[3]~output_o\ $end
$var wire 1 "! \HEX1[2]~output_o\ $end
$var wire 1 #! \HEX1[1]~output_o\ $end
$var wire 1 $! \HEX1[0]~output_o\ $end
$var wire 1 %! \LEDR[0]~output_o\ $end
$upscope $end
$upscope $end
$enddefinitions $end
#0
$dumpvars
0!
01
12
0?
1@
xA
1B
1C
1D
1E
1F
1G
0O
0P
1Q
0f
0g
0h
1i
0j
0k
0l
0m
0n
0o
1p
0q
0r
0s
1t
1u
0v
0w
0x
0y
0z
0{
1|
0}
0~
0!!
0"!
0#!
0$!
0%!
03
04
05
16
07
08
09
0:
0;
0<
1=
0>
1H
0I
0J
0K
0L
0M
0N
0R
0S
0T
1U
0V
0W
0X
0Y
0Z
0[
1\
0]
1^
0_
0`
0a
0b
0c
0d
0e
1"
0#
0$
0%
0&
0'
0(
1)
0*
0+
0,
0-
0.
0/
00
$end
#10000
1!
1P
1r
#20000
0!
0P
0r
#30000
1!
1P
1r
#40000
0!
0P
0r
#50000
1!
1P
1r
#60000
0!
0P
0r
#70000
1!
1P
1r
#80000
0!
0P
0r
#90000
1!
1P
1r
#100000
0!
0P
0r
#110000
1!
1P
1r
#120000
0!
0P
0r
#130000
1!
1P
1r
#140000
0!
0P
0r
#150000
1!
1P
1r
#160000
0!
0P
0r
#170000
1!
1P
1r
#180000
0!
0P
0r
#190000
1!
1P
1r
#200000
0!
0P
0r
#210000
1!
1P
1r
#220000
0!
0P
0r
#230000
1!
1P
1r
#240000
0!
0P
0r
#250000
1!
1P
1r
#260000
0!
0P
0r
#270000
1!
1P
1r
#280000
0!
0P
0r
#290000
1!
1P
1r
#300000
0!
0P
0r
#310000
1!
1P
1r
#320000
0!
0P
0r
#330000
1!
1P
1r
#340000
0!
0P
0r
#350000
1!
1P
1r
#360000
0!
0P
0r
#370000
1!
1P
1r
#380000
0!
0P
0r
#390000
1!
1P
1r
#400000
0!
0P
0r
#410000
1!
1P
1r
#420000
0!
0P
0r
#430000
1!
1P
1r
#440000
0!
0P
0r
#450000
1!
1P
1r
#460000
0!
0P
0r
#470000
1!
1P
1r
#480000
0!
0P
0r
#490000
1!
1P
1r
#500000
0!
0P
0r
#510000
1!
1P
1r
#520000
0!
0P
0r
#530000
1!
1P
1r
#540000
0!
0P
0r
#550000
1!
1P
1r
#560000
0!
0P
0r
#570000
1!
1P
1r
#580000
0!
0P
0r
#590000
1!
1P
1r
#600000
0!
0P
0r
#610000
1!
1P
1r
#620000
0!
0P
0r
#630000
1!
1P
1r
#640000
0!
0P
0r
#650000
1!
1P
1r
#660000
0!
0P
0r
#670000
1!
1P
1r
#680000
0!
0P
0r
#690000
1!
1P
1r
#700000
0!
0P
0r
#710000
1!
1P
1r
#720000
0!
0P
0r
#730000
1!
1P
1r
#740000
0!
0P
0r
#750000
1!
1P
1r
#760000
0!
0P
0r
#770000
1!
1P
1r
#780000
0!
0P
0r
#790000
1!
1P
1r
#800000
0!
0P
0r
#810000
1!
1P
1r
#820000
0!
0P
0r
#830000
1!
1P
1r
#840000
0!
0P
0r
#850000
1!
1P
1r
#860000
0!
0P
0r
#870000
1!
1P
1r
#880000
0!
0P
0r
#890000
1!
1P
1r
#900000
0!
0P
0r
#910000
1!
1P
1r
#920000
0!
0P
0r
#930000
1!
1P
1r
#940000
0!
0P
0r
#950000
1!
1P
1r
#960000
0!
0P
0r
#970000
1!
1P
1r
#980000
0!
0P
0r
#990000
1!
1P
1r
